\relax 
\catcode `:\active 
\catcode `;\active 
\catcode `!\active 
\catcode `?\active 
\select@language{french}
\@writefile{toc}{\select@language{french}}
\@writefile{lof}{\select@language{french}}
\@writefile{lot}{\select@language{french}}
\@writefile{toc}{\contentsline {section}{\numberline {1}Taches}{3}}
\@writefile{toc}{\contentsline {subsection}{\numberline {1.1}Viewer}{3}}
\@writefile{toc}{\contentsline {subsection}{\numberline {1.2}Cr\'eation, modification, suppression}{3}}
