\select@language {french}
\contentsline {section}{\numberline {1}Taches}{3}
\contentsline {subsection}{\numberline {1.1}Viewer}{3}
\contentsline {subsection}{\numberline {1.2}Cr\'eation, modification, suppression}{3}
